<?xml version="1.0" encoding="UTF-8"?>
<svg width="64px" height="64px" viewBox="0 0 64 64" version="1.1" xmlns="http://www.w3.org/2000/svg" xmlns:xlink="http://www.w3.org/1999/xlink">
    <!-- Generator: sketchtool 53.2 (72643) - https://sketchapp.com -->
    <title>AA2F58AF-3B0F-4178-A6B8-B1953F739072</title>
    <desc>Created with sketchtool.</desc>
    <g id="Landing" stroke="none" stroke-width="1" fill="none" fill-rule="evenodd">
        <g id="unicount-landing" transform="translate(-448.000000, -556.000000)">
            <g id="Group-19" transform="translate(448.000000, 556.000000)">
                <g id="Group-15">
                    <circle id="Oval" fill="#ECEFFF" cx="32" cy="32" r="32"></circle>
                    <circle id="Oval" fill="#FFFFFF" cx="26" cy="24" r="12"></circle>
                    <rect id="Rectangle" fill="#4660FF" opacity="0.300000012" x="42" y="39" width="9" height="12" rx="3"></rect>
                    <path d="M22.3155374,31.2827242 C22.6356863,31.8873372 23.0014454,32.4736015 23.4022893,33.0258535 C23.5342958,33.2066556 23.4970182,33.4626427 23.3194014,33.5973492 C23.2474776,33.6515004 23.1637126,33.6779046 23.0808247,33.6779046 C22.9584665,33.6779046 22.8374239,33.6210683 22.7589217,33.5127661 C22.3348341,32.9287395 21.9484626,32.3098055 21.6103328,31.6711802 C21.505517,31.4724769 21.5778794,31.2245453 21.7726001,31.1171381 C21.9673207,31.0097309 22.210283,31.0840209 22.3155374,31.2827242 Z M23.3544862,15.0799013 C23.532103,15.2150554 23.5685035,15.47149 23.4356198,15.6522922 C23.0321446,16.2036491 22.6641927,16.7890183 22.3422896,17.3918412 C22.2694886,17.5283378 22.1322193,17.605313 21.9901259,17.605313 C21.925219,17.605313 21.859435,17.5892019 21.7984751,17.5551896 C21.604193,17.4468874 21.5327077,17.1985082 21.6388392,17.0002525 C21.9791619,16.3634173 22.3677261,15.7453784 22.7935679,15.1631419 C22.926013,14.9818922 23.177308,14.9447473 23.3544862,15.0799013 Z M28.7671946,33.5977968 C28.5895777,33.4630903 28.5523001,33.2071031 28.6838682,33.026301 C29.0855892,32.474049 29.4513483,31.8873372 29.7710586,31.2831717 C29.8758744,31.0844684 30.1192752,31.010626 30.3139959,31.1175856 C30.5087166,31.2249928 30.5815176,31.4729244 30.4762631,31.6716277 C30.1385719,32.3098055 29.7517619,32.929187 29.3276743,33.5132136 C29.2491721,33.6215159 29.1281295,33.6783522 29.0053327,33.6783522 C28.9224448,33.6783522 28.8391184,33.6519479 28.7671946,33.5977968 Z M29.744745,17.3918412 C29.4224033,16.7890183 29.0544514,16.2040966 28.6509761,15.6522922 C28.518531,15.47149 28.5549315,15.2150554 28.7325483,15.0799013 C28.9097266,14.9447473 29.1610215,14.9818922 29.2934666,15.1631419 C29.7193085,15.7453784 30.1078727,16.3634173 30.4481953,17.0002525 C30.5543268,17.1985082 30.4828415,17.4468874 30.2885594,17.5551896 C30.2275996,17.5887544 30.1618156,17.6048655 30.0969087,17.6048655 C29.9548152,17.6048655 29.8175459,17.5278903 29.744745,17.3918412 Z M48.1967212,38.3232658 C49.7435225,38.3232658 51.0021899,39.6072293 50.9999971,41.1865626 L50.9999971,48.1380458 C50.9999971,49.7160365 49.7413297,51 48.194967,51 L44.7886709,51 C43.2423081,51 41.9836407,49.715589 41.9836407,48.1380458 L41.9836407,41.1865626 C41.9836407,39.6081244 43.2423081,38.3241609 44.7886709,38.3241609 L46.0771604,38.3241609 C45.903052,35.95986 43.9637394,34.0900798 41.6029706,34.0900798 C39.1286147,34.0900798 37.1151854,36.1446899 37.1151854,38.6701016 L37.1151854,40.6951747 C37.1151854,43.9232084 34.5421535,46.5488668 31.3792583,46.5488668 C28.2163631,46.5488668 25.6428926,43.9232084 25.6428926,40.6951747 C25.6428926,40.6951747 25.6428926,40.6951747 25.6428926,40.6942796 L25.6428926,36.5702909 C22.4769275,36.4691491 19.5407679,35.1332721 17.3440205,32.7926903 C17.314637,32.7725515 17.285692,32.750175 17.2611327,32.7219806 C17.2409589,32.6982615 17.2247322,32.6740949 17.2106982,32.6476906 C15.1556058,30.3863216 14.0157882,27.4496299 14,24.3652533 L14,24.2981238 C14,21.1533307 15.1613071,18.1647255 17.2694653,15.8832176 C19.5552404,13.3931608 22.6497202,12.0165586 25.9867237,12.0040278 C25.9990034,12.0022376 26.0112831,12.0017901 26.0235628,12.0013426 C26.0283869,12.0008951 26.0332111,12 26.0380353,12 C26.0397895,12 26.0406666,12.0004475 26.0424209,12.0004475 C26.0441751,12.0004475 26.0454908,12 26.0468065,12 C26.0608404,12 26.0748743,12.0022376 26.0889082,12.0035802 C26.0897854,12.0035802 26.0902239,12.0035802 26.0906625,12.0035802 C29.38381,12.0174537 32.559862,13.4298583 34.8123065,15.8836652 C36.9248504,18.1606977 38.0887888,21.1493029 38.0887888,24.2976763 L38.0887888,24.3625681 C38.0734392,27.4518676 36.9305516,30.3890068 34.8697579,32.6481382 C34.8561625,32.6736474 34.8399358,32.697814 34.8202006,32.720638 C34.7956412,32.7492799 34.7671348,32.772104 34.7373127,32.7913478 C32.5734574,35.1023926 29.5758993,36.4678065 26.4458961,36.5761088 L26.4458961,40.6947272 L26.4458961,40.6956222 C26.4463347,43.4716507 28.6597473,45.7303345 31.380574,45.7303345 C34.1014007,45.7303345 36.3152519,43.4716507 36.3152519,40.6947272 L36.3152519,38.669654 C36.3152519,35.6931321 38.6883004,33.271995 41.6047248,33.271995 C44.4071237,33.271995 46.7069326,35.5078547 46.8823567,38.3232658 L48.1967212,38.3232658 Z M14.8126518,24.771163 C14.9174677,27.3999541 15.8985265,29.8949337 17.6062794,31.8730162 C18.5904082,31.0361352 19.6824228,30.3567847 20.8463612,29.8497332 C20.7963654,29.8058753 20.7555793,29.7494865 20.7314585,29.6819095 C20.4854263,28.9994262 20.2858814,28.2936715 20.1376481,27.5852315 C20.0911608,27.3645992 20.2293072,27.1470997 20.4459559,27.100109 C20.662166,27.0531184 20.8753062,27.1936428 20.921355,27.4147226 C21.0616942,28.08557 21.2507136,28.7537323 21.483589,29.3999656 C21.505517,29.4612772 21.5107797,29.5239314 21.5042013,29.5847955 C22.8203201,29.0947501 24.2153796,28.8186241 25.6406998,28.7747662 L25.6406998,24.7716105 L20.6139244,24.7716105 C20.6196256,24.9707614 20.6275197,25.1708073 20.6406765,25.368168 C20.6555876,25.5937231 20.4884962,25.7888462 20.2679005,25.8040622 C20.2586907,25.8045097 20.2494809,25.8049573 20.2402712,25.8049573 C20.0315166,25.8049573 19.8552154,25.6393712 19.840743,25.4236617 C19.8262705,25.2075047 19.8179378,24.9891101 19.8122366,24.771163 L14.8126518,24.771163 Z M17.5975082,16.7312869 C15.8665116,18.7362212 14.8858913,21.2746113 14.8078276,23.9530782 L19.8109209,23.9530782 C19.8170607,23.7149923 19.8280247,23.4769063 19.84469,23.2415055 C19.8604782,23.016398 20.0525675,22.8467841 20.2731632,22.8633427 C20.4941975,22.8794538 20.6599732,23.0754719 20.644185,23.3005795 C20.6288354,23.5162889 20.6187485,23.7346836 20.6126087,23.9530782 L25.6402613,23.9530782 L25.6402613,19.83804 C24.2206424,19.7941821 22.8295298,19.5185036 21.5151653,19.0298009 C21.5344619,19.1072236 21.5318306,19.1909117 21.5024471,19.2714671 C21.2678174,19.9163578 21.0761667,20.583625 20.9331961,21.25492 C20.89241,21.4464628 20.7261957,21.5771415 20.5420005,21.5771415 C20.5134941,21.5771415 20.4849877,21.5740088 20.4564813,21.5677434 C20.2402712,21.5194102 20.1030019,21.3019106 20.1499278,21.0812783 C20.3007925,20.3723908 20.5034072,19.6675311 20.7511937,18.9863905 C20.7823314,18.9009123 20.8397828,18.8333352 20.9095138,18.7872397 C19.7197004,18.2757129 18.6031265,17.5856217 17.5975082,16.7312869 Z M37.2827154,23.9530782 C37.2050902,21.2714786 36.2218386,18.732641 34.486895,16.7317345 C33.4839081,17.5860692 32.3682113,18.276608 31.1788364,18.7881347 C31.2481289,18.8342303 31.3051417,18.9013598 31.3362794,18.986838 C31.5840659,19.6679787 31.7866806,20.3728384 31.9375453,21.0812783 C31.9844712,21.3019106 31.8472019,21.5198577 31.6309918,21.5677434 C31.6024854,21.5740088 31.5735404,21.5771415 31.5454726,21.5771415 C31.3608388,21.5771415 31.1950631,21.4464628 31.154277,21.25492 C31.0113064,20.5840725 30.8196557,19.9163578 30.5845875,19.2714671 C30.555204,19.1913592 30.5525726,19.1076711 30.5714307,19.030696 C29.2575047,19.5189512 27.8650765,19.7941821 26.4423876,19.83804 L26.4423876,23.9530782 L31.4739873,23.9530782 C31.4678475,23.7346836 31.4577606,23.5162889 31.442411,23.3005795 C31.4266228,23.0750244 31.5928371,22.8794538 31.8134328,22.8628952 C32.0340285,22.8463366 32.2256792,23.016398 32.241906,23.2415055 C32.2585713,23.4769063 32.2695353,23.7149923 32.2756751,23.9530782 L37.2827154,23.9530782 Z M34.4768081,31.8734638 C36.1893851,29.8980664 37.1735139,27.4030868 37.2792069,24.7716105 L32.2752365,24.7716105 C32.2695353,24.9900052 32.2612026,25.2079523 32.2467301,25.4241092 C32.2322576,25.6402662 32.0559565,25.8054048 31.8472019,25.8054048 C31.8379921,25.8054048 31.8287824,25.8049573 31.8195726,25.8045097 C31.5985384,25.7888462 31.4318855,25.5937231 31.4467966,25.3686155 C31.4599534,25.1708073 31.4678475,24.9712089 31.4735487,24.7716105 L26.4423876,24.7716105 L26.4423876,28.7747662 C27.8677079,28.8186241 29.2645217,29.0965402 30.5832718,29.5888232 C30.5758163,29.5266166 30.5806404,29.4626198 30.6034456,29.3999656 C30.836321,28.7537323 31.0253403,28.0860176 31.1656796,27.4147226 C31.2117284,27.1936428 31.4248686,27.0531184 31.6410787,27.100109 C31.8577274,27.1470997 31.9954352,27.3641517 31.9493864,27.5852315 C31.8015917,28.294119 31.6016083,28.9994262 31.3555761,29.6819095 C31.3305782,29.7508291 31.2889149,29.8081129 31.2376034,29.8524184 C32.3997876,30.3594698 33.4913636,31.0383728 34.4768081,31.8734638 Z M27.9317376,34.5908658 C28.0891807,34.7497389 28.0900578,35.0088588 27.934369,35.1695221 C27.7655234,35.3436112 27.5900993,35.51233 27.4124825,35.6792587 C29.8587706,35.369568 32.1616495,34.2404498 33.9246609,32.4686786 C31.8121171,30.6928797 29.1842652,29.6828045 26.4423876,29.592851 L26.4423876,35.011544 C26.4437033,35.0245223 26.4463347,35.0379482 26.4463347,35.0518217 L26.4463347,35.459969 C26.7647293,35.1842906 27.0725985,34.8951862 27.365118,34.593551 C27.5208069,34.4333352 27.7742946,34.4319927 27.9317376,34.5908658 Z M26.4419491,19.0199552 C29.1952292,18.9300017 31.8270281,17.9167938 33.9347478,16.1369671 C32.1296346,14.3150726 29.759656,13.1693958 27.2493382,12.8896896 C27.470811,13.0910781 27.6874597,13.2978369 27.8962143,13.5117563 C28.0523417,13.6715245 28.0514645,13.9306443 27.8948986,14.089965 C27.8163963,14.1691778 27.7142118,14.209008 27.6120273,14.209008 C27.5094043,14.209008 27.4063427,14.1687303 27.3278404,14.0881749 C27.0449692,13.7981755 26.748064,13.5211544 26.4419491,13.2562167 L26.4419491,19.0199552 Z M24.1925745,14.0890699 C24.03557,13.9297493 24.0351314,13.6706294 24.1908203,13.5108612 C24.4008905,13.2951518 24.619732,13.0870503 24.8425205,12.8838717 C22.308959,13.1532848 19.9766966,14.2819554 18.1483397,16.135177 C20.2630763,17.9163463 22.8948753,18.9300017 25.6406998,19.0199552 L25.6406998,13.2593494 C25.3359006,13.523392 25.0403111,13.7990705 24.7591941,14.0877274 C24.6811304,14.1678352 24.5780688,14.2081129 24.4754458,14.2081129 C24.3728227,14.2081129 24.2706382,14.1687303 24.1925745,14.0890699 Z M25.6406998,29.592851 C22.8922439,29.682357 20.264392,30.6924322 18.1584266,32.4677836 C19.9424889,34.2623788 22.210283,35.3758334 24.6719207,35.6756785 C24.4947424,35.5105399 24.320634,35.3427162 24.1526655,35.168627 C23.9969767,35.0088588 23.9982924,34.7497389 24.1552969,34.5908658 C24.3123014,34.4319927 24.5662277,34.4328877 24.7219165,34.593551 C25.0144361,34.8951862 25.3218667,35.1847381 25.6406998,35.459969 L25.6406998,29.592851 Z M50.2005021,48.1371507 L50.2005021,41.1856676 C50.2005021,40.0583395 49.3023311,39.1404556 48.1971598,39.1404556 L46.8946364,39.1404556 L46.8946364,42.581066 C46.8946364,42.8075162 46.7152653,42.9901084 46.4937925,42.9901084 C46.2727582,42.9901084 46.0933871,42.8075162 46.0933871,42.581066 L46.0933871,39.1404556 L44.7908637,39.1404556 C43.6861309,39.1404556 42.7875213,40.057892 42.7875213,41.1856676 L42.7875213,48.1371507 C42.7875213,49.2635837 43.6856923,50.1814677 44.7908637,50.1814677 L48.1971598,50.1814677 C49.3018926,50.1814677 50.2005021,49.2640312 50.2005021,48.1371507 Z" id="Combined-Shape" stroke="#926EFF" stroke-width="0.1" fill="#4660FF"></path>
                </g>
                <g id="Group" transform="translate(14.000000, 12.000000)"></g>
            </g>
        </g>
    </g>
</svg>